[
	{
		"ID": 1,
		"ChangeCondition": "BehaviorCondition_TurnN",
		"CCParam": "5",
		"NextBehaviorID": 1
	},
	{
		"ID": 2,
		"ChangeCondition": "BehaviorCondition_AttackedByEnemy",
		"CCParam": "",
		"NextBehaviorID": 1
	},
	{
		"ID": 3,
		"ChangeCondition": "BehaviorCondition_EnemyEnterMoveAndAttackRange",
		"CCParam": "",
		"NextBehaviorID": 1
	},
	{
		"ID": 4,
		"ChangeCondition": "BehaviorCondition_DistanceToMoveTargetLestEqual",
		"CCParam": "1",
		"NextBehaviorID": 4
	},
	{
		"ID": 5,
		"ChangeCondition": "BehaviorCondition_SelfHPPercentLessEqual",
		"CCParam": "0.5",
		"NextBehaviorID": 6
	},
	{
		"ID": 6,
		"ChangeCondition": "BehaviorCondition_FoundEnemyWithBuffN",
		"CCParam": "31008",
		"NextBehaviorID": 15
	},
	{
		"ID": 7,
		"ChangeCondition": "BehaviorCondition_NoEnemyWithBuffN",
		"CCParam": "31008",
		"NextBehaviorID": 14
	},
	{
		"ID": 8,
		"ChangeCondition": "BehaviorCondition_NoEnemyEnterMoveAndAttackRange",
		"CCParam": "",
		"NextBehaviorID": 17
	},
	{
		"ID": 9,
		"ChangeCondition": "BehaviorCondition_EnemyEnterMoveAndAttackRange",
		"CCParam": "",
		"NextBehaviorID": 16
	},
	{
		"ID": 10,
		"ChangeCondition": "BehaviorCondition_DistanceToMoveTargetLestEqual",
		"CCParam": "1",
		"NextBehaviorID": 18
	},
	{
		"ID": 11,
		"ChangeCondition": "BehaviorCondition_TurnN",
		"CCParam": "3",
		"NextBehaviorID": 1
	},
	{
		"ID": 12,
		"ChangeCondition": "BehaviorCondition_TurnN",
		"CCParam": "2",
		"NextBehaviorID": 1
	},
	{
		"ID": 13,
		"ChangeCondition": "BehaviorCondition_TurnN",
		"CCParam": "2",
		"NextBehaviorID": 1024
	},
	{
		"ID": 14,
		"ChangeCondition": "BehaviorCondition_TurnN",
		"CCParam": "4",
		"NextBehaviorID": 1
	},
	{
		"ID": 15,
		"ChangeCondition": "BehaviorCondition_DistanceToMoveTargetLestEqual",
		"CCParam": "0",
		"NextBehaviorID": 126
	},
	{
		"ID": 16,
		"ChangeCondition": "BehaviorCondition_DistanceToMoveTargetLestEqual",
		"CCParam": "0",
		"NextBehaviorID": 128
	},
	{
		"ID": 17,
		"ChangeCondition": "BehaviorCondition_DistanceToMoveTargetLestEqual",
		"CCParam": "0",
		"NextBehaviorID": 128
	},
	{
		"ID": 18,
		"ChangeCondition": "BehaviorCondition_NoEnemyEnterMoveAndAttackRange",
		"CCParam": "",
		"NextBehaviorID": 34
	},
	{
		"ID": 19,
		"ChangeCondition": "BehaviorCondition_EnemyEnterMoveAndAttackRange",
		"CCParam": "",
		"NextBehaviorID": 33
	},
	{
		"ID": 20,
		"ChangeCondition": "BehaviorCondition_TurnN",
		"CCParam": "6",
		"NextBehaviorID": 1
	},
	{
		"ID": 21,
		"ChangeCondition": "BehaviorCondition_SelfHPPercentLessEqual",
		"CCParam": "0.22",
		"NextBehaviorID": 38
	},
	{
		"ID": 22,
		"ChangeCondition": "BehaviorCondition_NoEnemyEnterMoveAndAttackRange",
		"CCParam": "",
		"NextBehaviorID": 40
	},
	{
		"ID": 23,
		"ChangeCondition": "BehaviorCondition_EnemyEnterMoveAndAttackRange",
		"CCParam": "",
		"NextBehaviorID": 39
	},
	{
		"ID": 24,
		"ChangeCondition": "BehaviorCondition_TurnN",
		"CCParam": "4",
		"NextBehaviorID": 1
	},
	{
		"ID": 25,
		"ChangeCondition": "BehaviorCondition_TurnN",
		"CCParam": "6",
		"NextBehaviorID": 1
	},
	{
		"ID": 26,
		"ChangeCondition": "BehaviorCondition_TurnN",
		"CCParam": "2",
		"NextBehaviorID": 1547
	},
	{
		"ID": 100,
		"ChangeCondition": "BehaviorCondition_TurnN",
		"CCParam": "2",
		"NextBehaviorID": 104
	},
	{
		"ID": 101,
		"ChangeCondition": "BehaviorCondition_DistanceToMoveTargetLestEqual",
		"CCParam": "1",
		"NextBehaviorID": 105
	},
	{
		"ID": 102,
		"ChangeCondition": "BehaviorCondition_TurnN",
		"CCParam": "3",
		"NextBehaviorID": 110
	},
	{
		"ID": 103,
		"ChangeCondition": "BehaviorCondition_AttackedByEnemy",
		"CCParam": "",
		"NextBehaviorID": 110
	},
	{
		"ID": 104,
		"ChangeCondition": "BehaviorCondition_TurnN",
		"CCParam": "3",
		"NextBehaviorID": 23
	},
	{
		"ID": 105,
		"ChangeCondition": "BehaviorCondition_TurnN",
		"CCParam": "7",
		"NextBehaviorID": 23
	},
	{
		"ID": 106,
		"ChangeCondition": "BehaviorCondition_AttackedByEnemy",
		"CCParam": "",
		"NextBehaviorID": 114
	},
	{
		"ID": 107,
		"ChangeCondition": "BehaviorCondition_EnemyEnterMoveAndAttackRangeExcept",
		"CCParam": "1517",
		"NextBehaviorID": 114
	},
	{
		"ID": 108,
		"ChangeCondition": "BehaviorCondition_EnemyEnterMoveAndAttackRangeExcept",
		"CCParam": "1504",
		"NextBehaviorID": 106
	},
	{
		"ID": 109,
		"ChangeCondition": "BehaviorCondition_TurnN",
		"CCParam": "2",
		"NextBehaviorID": 108
	},
	{
		"ID": 110,
		"ChangeCondition": "BehaviorCondition_TurnN",
		"CCParam": "4",
		"NextBehaviorID": 108
	},
	{
		"ID": 111,
		"ChangeCondition": "BehaviorCondition_TurnN",
		"CCParam": "10",
		"NextBehaviorID": 23
	},
	{
		"ID": 135,
		"ChangeCondition": "BehaviorCondition_NoEnemyEnterMoveAndAttackRangeOfMoveTarget",
		"CCParam": "",
		"NextBehaviorID": 136
	},
	{
		"ID": 138,
		"ChangeCondition": "BehaviorCondition_EnemyEnterMoveAndAttackRange",
		"CCParam": "",
		"NextBehaviorID": 160
	},
	{
		"ID": 141,
		"ChangeCondition": "BehaviorCondition_AttackedByEnemy",
		"CCParam": "",
		"NextBehaviorID": 142
	},
	{
		"ID": 158,
		"ChangeCondition": "BehaviorCondition_EnemyEnterMoveAndAttackRange",
		"CCParam": "",
		"NextBehaviorID": 159
	},
	{
		"ID": 159,
		"ChangeCondition": "BehaviorCondition_NoEnemyEnterMoveAndAttackRangeOfMoveTarget",
		"CCParam": "",
		"NextBehaviorID": 158
	},
	{
		"ID": 160,
		"ChangeCondition": "BehaviorCondition_NoEnemyEnterMoveAndAttackRangeOfMoveTarget",
		"CCParam": "",
		"NextBehaviorID": 138
	},
	{
		"ID": 167,
		"ChangeCondition": "BehaviorCondition_AttackedByEnemy",
		"CCParam": "",
		"NextBehaviorID": 168
	},
	{
		"ID": 168,
		"ChangeCondition": "BehaviorCondition_DistanceToMoveTargetLestEqual",
		"CCParam": "1",
		"NextBehaviorID": 18
	},
	{
		"ID": 169,
		"ChangeCondition": "BehaviorCondition_DistanceToMoveTargetLestEqual",
		"CCParam": "0",
		"NextBehaviorID": 18
	},
	{
		"ID": 1000,
		"ChangeCondition": "BehaviorCondition_TurnN",
		"CCParam": "4",
		"NextBehaviorID": 1001
	},
	{
		"ID": 1003,
		"ChangeCondition": "BehaviorCondition_TurnN",
		"CCParam": "2",
		"NextBehaviorID": 1004
	},
	{
		"ID": 1005,
		"ChangeCondition": "BehaviorCondition_TurnN",
		"CCParam": "2",
		"NextBehaviorID": 1
	},
	{
		"ID": 1008,
		"ChangeCondition": "BehaviorCondition_DistanceToMoveTargetLestEqual",
		"CCParam": "0",
		"NextBehaviorID": 4
	},
	{
		"ID": 1009,
		"ChangeCondition": "BehaviorCondition_TurnN",
		"CCParam": "3",
		"NextBehaviorID": 1009
	},
	{
		"ID": 1010,
		"ChangeCondition": "BehaviorCondition_TurnN",
		"CCParam": "2",
		"NextBehaviorID": 1011
	},
	{
		"ID": 1012,
		"ChangeCondition": "BehaviorCondition_DistanceToMoveTargetLestEqual",
		"CCParam": "1",
		"NextBehaviorID": 1013
	},
	{
		"ID": 1015,
		"ChangeCondition": "BehaviorCondition_TurnN",
		"CCParam": "3",
		"NextBehaviorID": 1
	},
	{
		"ID": 1016,
		"ChangeCondition": "BehaviorCondition_TurnN",
		"CCParam": "2",
		"NextBehaviorID": 1
	},
	{
		"ID": 1026,
		"ChangeCondition": "BehaviorCondition_AttackedByEnemy",
		"CCParam": "",
		"NextBehaviorID": 1009
	},
	{
		"ID": 1036,
		"ChangeCondition": "BehaviorCondition_DistanceToMoveTargetLestEqual",
		"CCParam": "0",
		"NextBehaviorID": 1
	},
	{
		"ID": 1045,
		"ChangeCondition": "BehaviorCondition_NoEnemyEnterMoveAndAttackRange",
		"CCParam": "",
		"NextBehaviorID": 1046
	},
	{
		"ID": 1512,
		"ChangeCondition": "BehaviorCondition_DistanceToMoveTargetLestEqual",
		"CCParam": "0",
		"NextBehaviorID": 1513
	},
	{
		"ID": 1523,
		"ChangeCondition": "BehaviorCondition_TurnN",
		"CCParam": "2",
		"NextBehaviorID": 1524
	},
	{
		"ID": 1524,
		"ChangeCondition": "BehaviorCondition_DistanceToMoveTargetLestEqual",
		"CCParam": "0",
		"NextBehaviorID": 1528
	},
	{
		"ID": 1028,
		"ChangeCondition": "BehaviorCondition_TurnN",
		"CCParam": "5",
		"NextBehaviorID": 1029
	},
	{
		"ID": 1030,
		"ChangeCondition": "BehaviorCondition_TurnN",
		"CCParam": "2",
		"NextBehaviorID": 1029
	},
	{
		"ID": 2001,
		"ChangeCondition": "BehaviorCondition_TurnN",
		"CCParam": "2",
		"NextBehaviorID": 2002
	},
	{
		"ID": 2130,
		"ChangeCondition": "BehaviorCondition_TurnN",
		"CCParam": "1",
		"NextBehaviorID": 2135
	},
	{
		"ID": 2131,
		"ChangeCondition": "BehaviorCondition_HeroNExist",
		"CCParam": "460",
		"NextBehaviorID": 2136
	},
	{
		"ID": 2132,
		"ChangeCondition": "BehaviorCondition_TurnN",
		"CCParam": "2",
		"NextBehaviorID": 2130
	},
	{
		"ID": 2134,
		"ChangeCondition": "BehaviorCondition_HeroNExist",
		"CCParam": "460",
		"NextBehaviorID": 2137
	},
	{
		"ID": 2136,
		"ChangeCondition": "BehaviorCondition_TurnN",
		"CCParam": "1",
		"NextBehaviorID": 2138
	},
	{
		"ID": 2137,
		"ChangeCondition": "BehaviorCondition_TurnN",
		"CCParam": "2",
		"NextBehaviorID": 2133
	},
	{
		"ID": 2138,
		"ChangeCondition": "BehaviorCondition_TurnN",
		"CCParam": "1",
		"NextBehaviorID": 2139
	},
	{
		"ID": 2139,
		"ChangeCondition": "BehaviorCondition_TurnN",
		"CCParam": "3",
		"NextBehaviorID": 2134
	},
	{
		"ID": 2140,
		"ChangeCondition": "BehaviorCondition_AttackedByEnemy",
		"CCParam": "",
		"NextBehaviorID": 2136
	},
	{
		"ID": 2141,
		"ChangeCondition": "BehaviorCondition_EnemyEnterMoveAndAttackRange",
		"CCParam": "",
		"NextBehaviorID": 2136
	},
	{
		"ID": 2142,
		"ChangeCondition": "BehaviorCondition_AttackedByEnemy",
		"CCParam": "",
		"NextBehaviorID": 2137
	},
	{
		"ID": 2143,
		"ChangeCondition": "BehaviorCondition_EnemyEnterMoveAndAttackRange",
		"CCParam": "",
		"NextBehaviorID": 2137
	},
	{
		"ID": 2200,
		"ChangeCondition": "BehaviorCondition_DistanceToMoveTargetLestEqual",
		"CCParam": "0",
		"NextBehaviorID": 3003
	},
	{
		"ID": 2201,
		"ChangeCondition": "BehaviorCondition_DistanceToMoveTargetLestEqual",
		"CCParam": "0",
		"NextBehaviorID": 3002
	},
	{
		"ID": 2202,
		"ChangeCondition": "BehaviorCondition_DistanceToMoveTargetLestEqual",
		"CCParam": "0",
		"NextBehaviorID": 3005
	},
	{
		"ID": 2203,
		"ChangeCondition": "BehaviorCondition_DistanceToMoveTargetLestEqual",
		"CCParam": "0",
		"NextBehaviorID": 3004
	},
	{
		"ID": 2204,
		"ChangeCondition": "BehaviorCondition_DistanceToMoveTargetLestEqual",
		"CCParam": "0",
		"NextBehaviorID": 3007
	},
	{
		"ID": 2205,
		"ChangeCondition": "BehaviorCondition_DistanceToMoveTargetLestEqual",
		"CCParam": "0",
		"NextBehaviorID": 3006
	},
	{
		"ID": 2206,
		"ChangeCondition": "BehaviorCondition_DistanceToMoveTargetLestEqual",
		"CCParam": "0",
		"NextBehaviorID": 3109
	},
	{
		"ID": 2207,
		"ChangeCondition": "BehaviorCondition_DistanceToMoveTargetLestEqual",
		"CCParam": "0",
		"NextBehaviorID": 3110
	},
	{
		"ID": 2208,
		"ChangeCondition": "BehaviorCondition_DistanceToMoveTargetLestEqual",
		"CCParam": "0",
		"NextBehaviorID": 3111
	},
	{
		"ID": 2209,
		"ChangeCondition": "BehaviorCondition_DistanceToMoveTargetLestEqual",
		"CCParam": "0",
		"NextBehaviorID": 3108
	},
	{
		"ID": 3022,
		"ChangeCondition": "BehaviorCondition_SelfHPPercentLessEqual",
		"CCParam": "0.22",
		"NextBehaviorID": 3023
	},
	{
		"ID": 3023,
		"ChangeCondition": "BehaviorCondition_DistanceToMoveTargetLestEqual",
		"CCParam": "0",
		"NextBehaviorID": 1
	},
	{
		"ID": 3024,
		"ChangeCondition": "BehaviorCondition_DistanceToMoveTargetLestEqual",
		"CCParam": "0",
		"NextBehaviorID": 3031
	}
]