[
	{
		"ID": 0,
		"SelectLeaderCondition": "BehaviorCondition_Never",
		"SLCParam": "",
		"LeaderBehavior": 0,
		"MemberBehavior": 0
	},
	{
		"ID": 1,
		"SelectLeaderCondition": "BehaviorCondition_EnemyEnterMoveAndAttackRangeOfMoveTarget",
		"SLCParam": "",
		"LeaderBehavior": 0,
		"MemberBehavior": 12
	},
	{
		"ID": 2,
		"SelectLeaderCondition": "BehaviorCondition_DoingBehaviorN",
		"SLCParam": "1",
		"LeaderBehavior": 1,
		"MemberBehavior": 1
	},
	{
		"ID": 3,
		"SelectLeaderCondition": "BehaviorCondition_EveryTurn",
		"SLCParam": "",
		"LeaderBehavior": 0,
		"MemberBehavior": 20
	}
]